时间,公司,简介,age1,age2,business,融资金额,money,轮次,投资方,月份,,,
2015年1月,决胜网,一站式在线留学服务平台,出国留学,服务,B2C,未透露,0,B轮,信中利领投，新东方和线性资本跟投,1,,,
2015年1月,北京世纪明德教育,为青少年提供各类体验式教学服务，包括夏令营、游学、主题营服务等,K12,服务,B2C,未透露,0,B轮,未透露,1,,,
2015年1月,作业帮,面向K12的问答学习平台，以拍照搜题、语音搜题形态切入的题库工具,K12,工具,B2C,未透露,0,A轮,红杉资本、君联资本,1,,,
2015年1月,嘿设汇,一款专门为设计领域的大学生人群服务的APP平台,高等教育,工具,B2C,未透露,0,A轮,未透露,1,,,
2015年1月,老师好-师全师美,前身是师全师美，是一个O2O家教教育辅导平台，致力于根据每一位学员的个性化需求及偏好，帮助学员找到最合适的老师,K12,服务,C2C,未透露,0,A轮,58同城,1,,,
2015年3月,爱学贷,是一家多功能性的电子商务服务平台，爱学贷大学生分期商场主要经营手机、平板、电脑、数码等商品，全部都支持零首付分期支付,综合性平台,服务,B2C,3亿,0,B轮,中银投资浙商产业基金,3,,,
2015年3月,早道日语网校,,成人外语,服务,B2C,未透露,0,天使,未透露,3,,,
2015年3月,罗辑思维,产品包括微信订阅号，知识类脱口秀视频和音频产品，微信店铺里销售书籍，生活用品、知识服务等,综合性平台,社区,B2C,未透露,0,B轮,中国文化产业投资基金领投，启明创投跟投,3,,,
2015年3月,爱赛达课,在线SAT学习备考产品,出国留学,工具,B2C,未透露,0,A轮,ATA,3,,,
2015年3月,榜样（趣寻网）,P2P模式的在线教育网站,K12,服务,C2C,未透露,0,A轮,Crystal Capital清流资本,3,,,
2015年4月, 轻轻家教,家教对接平台，基于P3P模式提供找家教、找学生服务,K12,服务,C2C,未透露,0,B+轮,好未来,4,,,
2015年5月,全球说,在线语言课程平台,成人外语,内容,C2C,未透露,0,A轮,未透露,5,,,
2015年6月,悦宝园,早教平台 虚拟课堂,学前,服务,B2C,未透露,0,A轮,未透露,6,,,
2015年7月,乐博乐博机器人,机器人教育培训服务，将韩国最大的机器人学校ROBOROBO课程引入中国幼少儿启蒙教育阶段,STEAM,服务,B2C,未透露,0,战略投资,新东方,7,,,
2015年7月,樱桃老师,上门早教O2O,学前,服务,B2C,未透露,0,天使,未透露,7,,,
2015年7月,嘿哈科技,体感技术+语音识别技术幼儿教育领域软件开发公司,学前,工具,B2B,未透露,0,天使,好未来  新东方,7,,,
2015年7月,我的班,免费的家校沟通平台,K12,工具,B2B,未透露,0,天使,未透露,7,,,
2015年7月,91外教,在线英语学习网站,成人外语,服务,B2C,未透露,0,天使,51Talk,7,,,
2015年7月,樱桃老师,O2O上门早教服务，为0-6岁孩童提供专业的上门早教课程，采取线上平台预约的方式,学前,服务,B2C,未透露,0,天使,未透露,7,,,
2015年7月,记忆便签,帮用户利用碎片化时间的教育类手机软件，专注解决碎片知识记忆的问题,K12,工具,B2C,未透露,0,天使,险峰华兴,7,,,
2015年7月,口袋自考,是一个自考学习工具软件，为用户整理各类自考的考试、课程资讯，并实时推送到手机上,高等教育,工具,B2C,未透露,0,天使,险峰华兴,7,,,
2015年8月,皮影客,,其他,工具,B2B,未透露,0,天使,未来工场,8,,,
2015年8月,皮影客,,其他,工具,B2C,未透露,0,天使,未来工场,8,,,
2015年7月,2平米智慧学习桌,是一套经多位国际设计大师操刀历经数年精心打造，符合少儿成长发育特点的人体工程学学习桌系统,K12,其他,B2C,数十万人民币,20,天使,未来工场,7,,,
2015年8月,陪你学古筝,研发国乐音频技术的科技公司，现致力于打造古筝教学和交流的在线平台，做2000万古筝学员的弹吧,STEAM,社区,B2C,数十万人民币,20,天使,未来工场,8,,,
2015年8月,一维弦机器人,是一款主打半人型运动陪伴儿童教育机器人,STEAM,其他,B2C,数十万人民币,20,天使,未来工场,8,,,
2015年8月,智慧流,是一家为K12领域提供数字教辅出版的平台，主要针对小学英语学科与教材出版商合作发行数字教材App,K12,内容,B2B,数十万人民币,20,天使,未来工场,8,,,
2015年8月,贝壳单词,单词App,少儿外语,工具,B2C,50万人民币,50,天使,未透露,8,,,
2015年8月,MySIMAX,是犹太人在上海创立的一个看好非洲未来经济发展的开发教育平板电脑的科技公司，面向非洲市场，同时建立非洲精英人才俱乐部和移动数字交易市场,综合性平台,其他,B2B,20万美元,127,战略投资,阿里巴巴,8,,,
2015年8月,思享空间,基于微信公众号的线上讲座平台，是正能量青年的高端线上社群，邀请各领域达人进行微信群分享,综合性平台,社区,B2C,150万人民币,150,天使,以太资本,8,,,
2015年1月,看娃娃,通过手机建立孩子、家长、幼儿园之间的互动联系,学前,工具,B2B,数百万人民币,200,天使,未透露,1,,,
2015年10月,搜学宝,大学生课程选购平台,高等教育,工具,B2C,百万元人民币,200,天使,金枫创投,10,,,
2015年10月,提分威学堂,托福雅思SAT服务商,出国留学,服务,B2C,上百万人民币,200,天使,未透露,10,,,
2015年10月,A+课堂,高校互动作业平台,高等教育,工具,B2B,数百万人民币,200,天使,华创盛景,10,,,
2015年10月,骄阳新天纪,儿童游戏教育,学前,内容,B2C,数百万人民币,200,天使,清创科技、丁华民,10,,,
2015年10月,瑞应书院（找导师）,考研找导师+导师评价,高等教育,工具,B2C,200万人民币,200,天使,未透露,10,,,
2015年10月,好老师联盟,一站式家教联盟，帮助用户找到合适的教师，合理分配教育资源,K12,工具,B2C,数百万人民币,200,天使,险峰华兴,10,,,
2015年10月,赛氪-环球竞赛网,汇聚+组织全球大学生赛事社区,高等教育,社区,B2C,数百万人民币,200,天使,天使湾,10,,,
2015年10月,宝贝玩啥,一家为孩子提供玩耍和益智解决方案的在线教育平台，旗下产品还有用户宝等,学前,工具,B2C,数百万人民币,200,天使,泽厚资本,10,,,
2015年10月,小小牛,面向家庭亲子的儿童互动娱乐游戏开发商,学前,其他,B2C,数百万人民币,200,种子,红石诚金,10,,,
2015年11月,取暖,帮私教机构或者导师与学员实现对接的教育培训平台,职业教育,服务,B2B,数百万人民币,200,天使,泽厚资本,11,,,
2015年4月,猎掌门 ,,职业教育,社区,B2B,数百万人民币,200,天使,未来工场,4,,,
2015年6月,校鹿,面向K12阶段的中低龄留学信息网络搜索平台,出国留学,工具,B2C,200万人民币,200,天使,华溢资本,6,,,
2015年8月,蒲公英-博雅创智,是一个主打上门一对一英语培训的移动互联网教育平台,少儿外语,服务,C2C,数百万人民币,200,天使,子望投资等,8,,,
2015年8月,职学帮,是一个主打高考志愿填报的辅助APP，提供各个大学的历年录取分数线、各个专业的毕业生就业情况，还有师哥师姐的经验介绍，为填报志愿提供参考,K12,工具,B2C,数百万人民币,200,天使,太和投资,8,,,
2015年8月,弦音科技EUMLab,是一家立足于音乐创作和学习相关领域的软硬件开发的公,STEAM,其他,B2C,数百万人民币,200,天使,初心资本,8,,,
2015年8月,于斯课堂,是一家艺术类视频在线教学服务服务商,STEAM,内容,B2C,数百万人民币,200,天使,CA创投/CyberAgent国内,8,,,
2015年8月,音乐笔记-银河润泰,是一家主打教育智能硬件研发的创业公司，主要为音乐爱好者提供智能乐器训练辅助系统,STEAM,工具,B2C,数百万人民币,200,天使,未来工场,8,,,
2015年8月,画啦啦少儿美术课堂,是一个儿童课堂教学服务提供商,STEAM,内容,B2C,数百万人民币,200,天使,未来工场,8,,,
2015年8月,幼儿邦,,学前,工具,B2B,数百万人民币,200,天使,未透露,8,,,
2015年8月,贝贝单词,,成人外语,工具,B2C,数百万人民币,200,天使,未透露,8,,,
2015年8月,少年商学院,儿童跨学科人文教育服务平台，提供儿童国际化教育整体方案,K12,内容,B2C,数百万人民币,200,Pre-A轮,未透露,8,,,
2015年8月,提分宝,微家教平台，致力为中小学学生及家长提供最简便、有效的学习辅导服务,K12,服务,B2C,数百万人民币,200,Pre-A轮,未透露,8,,,
2015年8月,babycan, 是一款主打早教微动画的App，主要通过梳理0-6岁儿童教育的关键经验图谱，为家长提供可以跟孩子一起看一起玩的亲子游戏小动画,学前,内容,B2C,数百万人民币,200,Pre-A轮,未来工场,8,,,
2015年8月,有师网,在线互动教学学习平台,K12,服务,C2C,数百万人民币,200,A轮,绿网天下,8,,,
2015年9月,米学网,主打K12阶段的教育信息化公司,K12,工具,B2B,数百万,200,天使,未透露,9,,,
2015年9月,起点学院,是人人都是产品经理社区旗下的产品经理培训平台，导师团队由BAT等一线互联网公司、具有亿级产品经验的大牛组成,职业教育,社区,B2C,数百万人民币,200,天使,泽厚资本,9,,,
2015年9月,孔夫子,是一家专为中小学艺术生打造的，实时在线评画答题和学习交流的全免费移动学习平台，旗下有移动端产品——艺考就过,STEAM,社区,B2C,数百万人民币,200,天使,经纬中国,9,,,
2015年9月,口袋题库,"是一款专为考研学生打造的智能学习APP，用户可以用来在手机上做题,复习,备战考试",高等教育,工具,B2C,数百万人民币,200,天使,天使湾、银杏谷,9,,,
2015年9月,幼师口袋,是一个幼儿园教师教学资源分享平台,学前,社区,B2B,数百万人民币,200,天使,未来工场和华创资本,9,,,
2015年9月,糖堂Sweetclass,是一款提供家校沟通的移动学习应用，基于语音、图片、文字等多媒体形式的移动社交化学习应用，目标用户群为K12低学龄段人群以及他们的老师和家长,K12,工具,C2C,数百万人民币,200,天使,未透露,9,,,
2015年9月,新新家长,是一个家长的学习社区，为家长提供一个学习的平台,K12,社区,C2C,数百万人民币,200,天使,中国平安/平安创新投资基金,9,,,
2015年9月,手艺网,是一家手工艺在线教育平台，为用户提供手工艺在线教育，手工爱好者交流论坛，手工工具及手工高定电务服务,STEAM,社区,B2C,数百万人民币,200,天使,重庆商界传媒,9,,,
2015年9月,小海豚上门早教,是一家早教机构，为用户提供早教教师，早教课程与教具等服务,学前,服务,B2C,数百万人民币,200,天使,大道至简资本,9,,,199
2015年9月,葱课CongAcademy,是一个以按需定制和AA课程为核心的MOOC模式在线教育平台，鼓励每个人都发起课程，与世界分享他的经验、知识和见解,高等教育,内容,B2C,数百万人民币,200,天使,FDT金融创新工场,9,,,
2015年7月,优思家教,,K12,服务,B2C,300万人民币,300,天使,未透露,7,,,
2015年7月,邻师,,K12,服务,C2C,数百万人民币,300,天使,未透露,7,,,
2015年7月,典阅科技,,职业教育,服务,B2B,323万人民币,323,天使,众筹,7,,,
2015年7月,蛋白APP-光合邦,是一个短视频营养达人分享i及轻学习社区，用户可以制作3-4分钟的短视频，经由后台审核后发布，进行个人品牌的传播,综合性平台,内容,C2C,350万,350,天使,迭代资本,7,,,
2015年9月,陪你练,线艺术教育平台， 主要针对5-15岁的学生提供课后陪练服务,STEAM,服务,C2C,60万美金,382,天使,蓝驰,9,,,
2015年9月,多宝APP,,学前,工具,B2C,400万人民币,400,天使,洋葱基金领投，常创投跟投,9,,,
2015年9月,小牛学堂,是森纵艾德教育集团推出的在线教学平台，专注于IT职业教育，通过大牛直播的形式为“小牛”用户打造一个职业学习社区,职业教育,内容,C2C,400万人民币,400,pre-A轮,丰利财富,9,,,
2015年7月,约教,轻教育O2O平台,K12,工具,C2C,500万人民币,500,天使,创业宝,7,,,
2015年9月,坏男孩学院,男性约会技巧资讯网站和社区,STEAM,社区,C2C,500万人民币,500,天使,真顺基金,9,,,
2015年9月,童玩儿,亲子娱乐信息及服务,学前,内容,B2C,500万人民币,500,天使,陶石资本,9,,,
2015年9月,艺友网,提供艺考培训服务的平台，推荐画室等服务。,K12,工具,B2C,500万人民币,500,天使,未透露,9,,,
2015年9月,拼班,整合教育资源和用户资源的教育类O2O信息服务平台,综合性平台,服务,C2C,500万人民币,500,天使,未透露,9,,,
2015年9月,宝贝走天下,,学前,内容,B2C,500万人民币,500,天使,高科投、凯维资本和天使投资人王刚,9,,,
2015年10月,好家长,是一款面向学龄前及小学家长的教育应用，为家长和孩子提供最优质量和最有趣的教育内容，同时为家长建立了一个交流的社区,K12,社区,C2C,600万,600,天使,洪泰基金,10,,,
2015年10月,社交新语,英语口语社交+学习应用,成人外语,社区,C2C,100万美元,637,天使,未透露,10,,,
2015年11月,游子曰,出国留学领域大众点评网站学校搜索+问答+评论服务,出国留学,社区,C2C,800万人民币,800,A轮,中路集团/中路资本,11,,,
2015年10月,琅琅,真人外语陪练app,成人外语,服务,C2C,千万元,1000,A轮,北极光创投,10,,,
2015年10月,口袋题库,"是一款专为考研学生打造的智能学习APP，用户可以用来在手机上做题,复习,备战考试",高等教育,工具,B2C,1000万人民币,1000,A轮,未透露,10,,,
2015年11月,一米辅导,一个主打高性价比的中小学课外辅导平台,K12,服务,C2C,1000万人民币,1000,天使,精锐教育,11,,,
2015年11月,非常大脑,是一家互联网教育品牌，有两条业务线，一是智商与情商的测试与评估；二是智商与情商的专业训练,K12,内容,B2C,1000万人民币,1000,天使,未透露,11,,,
2015年11月,callcall教师,是一款面向K12市场的答题产品，其主打的是及时答题。学生提交问题，在线老师快速回复学生并解答,K12,服务,C2C,1000万人民币,1000,天使,未透露,11,,,
2015年11月,手艺网,是一家手工艺在线教育平台，为用户提供手工艺在线教育，手工爱好者交流论坛，手工工具及手工高定电务服务,STEAM,社区,B2C,1000万人民币,1000,Pre-A轮,观澜湖集团,11,,,
2015年11月,童伴教育,亲子服务，家庭安全和教育运营服务商,学前,其他,B2C,1000万人民币,1000,A轮,"洪泰基金、易一天使,新东方",11,,,
2015年11月,辅导团,答疑产品app， 主打“二维气泡语音思路点注”——即拍照后在题目上“打点”标注，做数理化等题目的讲解答疑,K12,工具,B2C,1000万人民币,1000,A轮,磐石资本、拓维资本,11,,,
2015年11月,喵爪,主打K12的教育社区及教育机器人服务平台,K12,服务,B2C,1000万,1000,pre-A轮,协同创新基金领投,11,,,
2015年6月,选师无忧,家教服务平台,K12,服务,C2C,1000万人民币,1000,A轮,未透露,6,,,
2015年9月,呼叫老师,一款一对一在线辅导App，该产品专注于解决孩子的作业问题,K12,服务,B2C,1000万元,1000,天使,中科乐创,9,,,
2015年11月,狸米学习,是一家专注于中小学教育领域的新锐教育科技企业，旗下拥有狸米学习和狸米教师等广受欢迎的互联网教育产品,K12,工具,B2C,数百万美元,1274,天使,北极光创投,11,,,
2015年11月,弹吧钢琴,钢琴学习移动APP，提供视频教学、免费琴谱、老师点评、实时陪练等服务。,K12,其他,C2C,数百万美元,1274,A轮,红杉资本,11,,,
2015年4月,托福Easy姐,英语托福考试服务应用，提供考位跟踪+真题模式训练等特定服务,出国留学,工具,B2C,数百万美元,1274,天使,贝塔斯曼亚洲投资基金,4,,,
2015年4月,选课网,直播课程搜索平台,综合性平台,工具,B2C,数百万美元,1274,A轮,北极光创投,4,,,
2015年5月,知米英语,是一个英语学习应用，前身为优趣背单词，旗下产品包括知米背单词、知米听力等,成人外语,工具,B2C,数百万美元,1274,pre-A轮,龙腾资本和顺为基金,5,,,
2015年5月,贝聊,幼儿园家园沟通平台,学前,工具,B2B,数百万美元,1274,A轮,未透露,5,,,
2015年6月,童游,在线亲子游平台,学前,服务,B2C,数百万美元,1274,天使,未透露,6,,,
2015年8月,条条,是一个在线教育和社交App，用户可在平台上进行自身阅读书籍或者考题的分享,K12,社区,C2C,数百万美元,1274,天使,真格基金,8,,,
2015年7月,学堂在线,是中国著名大规模开放式在线课程（简称MOOC）内容和技术平台提供商，通过学堂在线平台，为全球学习者提供来自世界知名高校的优质MOOCs，致力打造一流、免费且被学术界、社会广泛认可的高等教育课程体系,高等教育,内容,B2C,1760万人民币,1760,B轮,启迪创投/启迪控股,7,,,
2015年7月,阿凡题,在线答疑产品,K12,工具,B2C,1800万,1800,A轮,安芙兰创投和梅花创投,7,,,
2015年7月,Hive游学,提供轻游学服务，帮助学生找寻义工实习和兴趣实践机会的平台,综合性平台,服务,C2C,300万美元,1911,天使,IDG 资本、丰实资本，陈颉、知名主持人汪涵,7,,,
2015年1月,北京趣乐,智能乐器和弹吧在线音乐学习平台,STEAM,工具,B2C,2000万元,2000,A轮,珠江钢琴,1,,,
2015年10月,微学-辅导圈,是一家专注于移动教育领域的一家科技公司，致力于成为在线辅导第一品牌,K12,服务,B2C,数千万人民币,2000,A轮,磐石资本、拓维资本,10,,,
2015年11月,小酱油,校园活动平台,其他,工具,C2C,千万人民币,2000,pre-A轮,青松基金,11,,,
2015年11月,欢拓科技,云直播技术提供商,其他,其他,B2B,千万级,2000,A轮,赛富基金领投,11,,,
2015年11月,星天乐园,专注于亲子教育游戏,学前,内容,B2C,千万级人民币,2000,pre-A轮,永宣创投高管的种子轮融资以及清创基金、众诚资本等,11,,,
2015年11月,贝美互动,互联网玩具市场,学前,其他,B2C,数千万人民币,2000,战略投资,大河创投、宝宝树,11,,,
2015年11月,优才学院,,职业教育,内容,B2C,千万级,2000,A轮,丹诚开普,11,,,
2015年11月,爱早教,儿童课程推荐平台,学前,内容,B2C,千万级,2000,A轮,中汇金,11,,,
2015年12月,童伴教育,专注于亲子服务的移动互联网软硬件平台,K12,其他,B2C,数千万,2000,A轮,新东方 老鹰易真基金 ,12,,,
2015年12月,我赢职场,IT培训,职业教育,内容,B2C,数千万,2000,pre-B轮,上海鼎锋资产,12,,,
2015年2月,驾考团,,职业教育,服务,B2C,数千万人民币,2000,A轮,未透露,2,,,
2015年5月,容艺教育,文创实战型人才培养涉足娱乐传媒行业+校园院线为基础,职业教育,内容,B2C,千万人民币,2000,战略投资,优酷土豆,5,,,
2015年6月,铂略财务培训,财务技能培训,职业教育,内容,B2C,数千万人民币,2000,天使,凯风创投,6,,,
2015年6月,尚课无忧,艺术爱好者学习平台,STEAM,内容,C2C,数千万人民币,2000,天使,未透露,6,,,
2015年6月,爱预科,国际教育在线学习和服务平台,出国留学,服务,B2C,2000万人民币,2000,天使,未透露,6,,,
2015年6月,学吧课堂,是一家K12领域的在线教育创业公司,K12,工具,B2C,数千万人民币,2000,Pre-A轮,晨兴创投,6,,,
2015年6月,答疑君,,K12,服务,B2C,数千万人民币,2000,Pre-A轮,华旦天使投资,6,,,
2015年6月,疯狂老师,家教移动互联网教育应用,K12,服务,C2C,数千万人民币,2000,Pre-A轮, 黑马基金天使投资人吴宵光,6,,,
2015年6月,口语100,听说教学训练技术支持以及口语练习的软件和服务,K12,工具,B2B,数千万元,2000,B轮,新东方、朗玛峰创、软银中国,6,,,
2015年6月,小伴龙,互联网早教,学前,内容,B2C,数千万人民币,2000,B轮,好未来,6,,,
2015年6月,宝贝全计划,是一家专注于婴幼儿、育儿服务的移动应用开发商,学前,内容,B2C,数千万人民币,2000,B轮,科冕木业/天神互动,6,,,
2015年6月,易题库,智能选题组卷测评系统,K12,工具,B2B,数千万人民币,2000,A轮,腾讯产业共赢基金,6,,,
2015年6月,学乐,教学服务平台,K12,其他,B2B,2000万人民币,2000,A轮,王刚、朱啸虎,6,,,
2015年6月,诺贝儿教育,学前教育,学前,其他,B2B,数千万人民币,2000,A轮,康佳领投，久安富赢和其他个人跟投,6,,,
2015年6月,凌声芯语音,语音处理技术研发科技公司,其他,其他,B2B,2000万人民币,2000,A轮,立思辰,6,,,
2015年6月,掌门1对1,初高中学生在线1对1教育,K12,服务,C2C,2000万人民币,2000,A轮,青松基金 顺为基金,6,,,
2015年6月,DaDaABC哒哒在线少儿英语,是一家青少儿外教英语教育网站，为5-13岁小朋友在家通过互联网与中教或外教一对一学习英语,少儿外语,服务,B2C,数千万人民币,2000,A轮,龙腾资本领投，飞马基金、青松基金跟投,6,,,
2015年6月,一米智联,一系列的在线工具提高运营效率，增进用户粘度，创造增值服务，实现转型升级,K12,其他,B2B,数千万人民币,2000,A轮,某PE公司,6,,,
2015年6月,翡翠教育,游戏动漫培训,职业教育,服务,B2C,数千万人民币,2000,A轮,安卓易科技有限公司、翡翠教育早期战略投资人,6,,,
2015年7月,寓乐湾,青少年科技创意教育、活动、体验中心 科技教育相关的赛事、体验中心、产品销售服务,K12,服务,B2C,数千万人民币,2000,B轮,新东方,7,,,
2015年6月,智园控股-创课Tronclass,是一家教育行业的管理资讯及软件开发公司，为高等院校及中小学的校务管理提供整体解決方案,其他,其他,B2B,2218万人民币,2218,A轮,全通教育,6,,,
2015年8月,智园控股-创课Tronclass,是一家教育行业的管理资讯及软件开发公司，为高等院校及中小学的校务管理提供整体解決方案,其他,其他,B2B,2218万人民币,2218,B轮,全通教育,8,,,
2015年6月,校讯通/河北皇典,河北省家校互动平台,学前,工具,B2B,2450万人民币,2450,A轮,全通教育,6,,,
2015年9月,乐学高考,电影级效果的高考短视频平台+名师讲解,K12,内容,B2C,400万美元,2548,天使,基因资本,9,,,
2015年5月,能动英语,7-14岁儿童英语培训,K12,服务,B2C,3000万人民币,3000,战略投资,德联资本和浙江金控,5,,,
2015年5月,美术宝,垂直教育社交应用 线上美术作品点评+视频示范教学,STEAM,工具,B2C,3000万人民币,3000,A轮,蓝驰创投 顺为创业投资,5,,,
2015年6月,名师宝,学习服务O2O平台 找老师,K12,服务,C2C,3000万人民币,3000,天使,未透露,6,,,
2015年7月,乂学教育,,K12,其他,B2C,3000万,3000,天使,青松基金领投、正和磁系资本和俞敏洪个人跟投,7,,,
2015年7月,看娃娃,面向幼儿园的家园共育手机APP,学前,工具,B2B,3000万人民币,3000,pre-A轮,梅花天使和安芙兰创投,7,,,
2015年7月,动吧体育, 一款O2O青少年足球培训产品,STEAM,服务,B2C,3000万,3000,A轮,信中利、新东方和奥瑞金,7,,,
2015年6月,卓识成就,青少年素质教育平台，培养学员的商业、创新智能、法律等知识素养和实践能力。,STEAM,服务,B2C,500万美元,3185,天使,成为资本,6,,,
2015年9月,乐乐课堂,互联网教育 主打数学语文教育,K12,内容,B2C,500万美元,3185,A轮,晨兴创投 ,9,,,
2015年6月,wisdom garden,教育信息化服务公司 教育行业的管理咨询+软件开发服务,高等教育,其他,B2B,3300万人民币,3300,A轮,全通教育,6,,,
2015年5月,BoniO（中国台湾）,游戏式教育,K12,内容,B2C,600万美元,3822,战略投资,鸿海集团,5,,,
2015年5月,宝宝巴士Baby Bus,专门针对学龄前儿童研发的教育软件产品，全面覆盖iOS、Android及WP三大平台,学前,内容,B2C,4000万人民币,4000,B轮,基因资本 好未来,5,,,
2015年5月,易观企业教育,提供企业家教育、“互联网＋在线教育”，“互联网＋”咨询培训等一站式企业教育,职业教育,其他,B2B,4000万,4000,A轮,晨晖资本领投，国富资本、世纪证券、达内科技、亚杰基金等,5,,,
2015年6月,麦淘亲子,儿童体验式成长平台,STEAM,服务,B2C,4000万,4000,A轮,开物华登领投、有成基金跟投,6,,,
2015年5月,Hive游学,提供轻游学服务，帮助学生找寻义工实习和兴趣实践机会的平台,其他,服务,C2C,650万美元,4141,A轮,鼎晖投资，唯猎资本，IDG资本,5,,,
2015年7月,顶你学堂TopU-过来人教育,是一个视频直播教育的 MOOC 平台，内容涵盖大学课程、职场求职、考试技能和语言留学等等,高等教育,内容,B2C,4500万人民币,4500,B轮,未透露,7,,,
2015年4月,360教育集团,零中介费留学服务提供商,出国留学,服务,B2C,5000万人民币,5000,A轮,未透露,4,,,
2015年4月,老师好-师全师美,家教教育辅导平台,K12,服务,C2C,1000万美元,6370,A轮,SIG海纳亚洲,4,,,
2015年4月,凡学教育,教育产品研发商 ,K12,其他,B2B,1000万美元,6370,A轮,阿米巴资本,4,,,
2015年4月,作业盒子,基于大数据的智能题库产品，分为教师端与学生端，智能出题+多形式批注+学习效果数据统计与图谱搭建等等,K12,工具,B2B,1000万美元,6370,A轮,联想之星 好未来,4,,,
2015年4月,北风网,IT教育网站,职业教育,内容,B2C,6400万人民币,6400,B轮,未透露,4,,,
2015年9月,学信科技,专注于移动互联网技术在教育行业的大数据挖掘和创新应用,K12,其他,B2B,6500万元,6500,A轮,海淀国投、华软资本、乾元投资,9,,,
2015年5月,请他教,O2O模式的家教对接平台 预约服务,K12,服务,C2C,6950万人民币,6950,A轮,纽信创投 梅花天使创投,5,,,
2015年7月,请他教,O3O模式的家教对接平台 预约服务,K12,服务,C2C,8600万人民币,8600,A+轮,盈信投资,7,,,
2015年4月,盒子鱼英语,,K12,内容,B2B,1500万美元,9555,A轮,未透露,4,,,
2015年5月, 轻轻家教,家教对接平台，基于P2P模式提供找家教、找学生服务,K12,服务,C2C,1500万美元,9555,B轮,红杉资本领投，挚信资本和IDG跟投,5,,,
2015年11月,智慧树,一个幼教互动云平台，基于移动互联网为家长、教师、幼儿园提供家校互动服务,学前,工具,B2B,1亿人民币,10000,B轮,未透露,11,,,
2015年11月,麦子学院,一家在线教育平台，主打B2C高端IT职业教育，主要课程包括Android开发、WindowsPhone8开发、iOS开发等课程,职业教育,服务,B2C,1亿人民币,10000,B轮,曲速资本 上海融川投资 五岳天下资本,11,,,
2015年5月,学乐,教学服务平台,K12,工具,B2B,1亿人民币,10000,B轮,金沙江创投 海通开元 天使投资人王刚,5,,,
2015年6月,顺顺留学,留学顾问平台 线上挑选顾问+中材料制作+网申+签证办理+行前辅导,出国留学,服务,C2C,1800万美元,11466,A轮,IDG资本 好未来,6,,,
2015年5月,慧沃网,提供幼儿园智慧办园解决方案,学前,工具,B2B,1.2亿人民币,12000,B轮,和君资本等,5,,,
2015年9月,小熊尼奥,儿童早教领域的产品研发,学前,内容,B2B,1.2亿人民币,12000,A轮,"纪源资本,美国高通公司，ZTE中兴合创，国金证券，海通开元资本以及六禾创投等",9,,,
2015年3月,啄木鸟教育,专注美国高端留学,出国留学,服务,B2C,2000万美元,12740,战略投资,东方港湾,3,,,
2015年3月,星空琴行,O2O模式的钢琴教学服务平台,STEAM,服务,B2C,2000万美元,12740,C轮,蓝驰创投 顺为基金 嘉御基金,3,,,
2015年3月,疯狂老师,家教移动互联网教育应用,K12,服务,C2C,2000万美元,12740,B轮,腾讯产业共赢基金,3,,,
2015年3月,乐乐课堂,K12内容供应商,K12,内容,B2B,2000万美元,12740,B轮,光速安振中国创业投资基金，晨兴资本，蓝驰创投、新浪公司,3,,,
2015年3月,VIPKID少儿英语,一个少儿英语学习及教育品牌，主打个性化美国小学课程一对一在线辅导服务,少儿外语,服务,B2C,2000万美元,12740,B轮,北极光资本领投，经纬中国、创新工场、红杉资本跟投,3,,,
2015年5月,乔布堂,在线求职服务,高等教育,工具,B2C,数千万美元,12740,A轮,晨兴创投 ,5,,,
2015年12月,翡翠教育,国内领先职业教育机构,职业教育,服务,B2C,1.5亿,15000,B轮,未透露,12,,,
2015年3月,疯狂老师,家教移动互联网教育应用,K12,服务,C2C,2400万美金,15288,B+轮,鲲翎资本与分享资本,3,,,
2015年11月,决胜网,一站式在线留学服务网站,高等教育,服务,B2C,1.7亿人民币,17000,C轮,天舟文化，达内科技,11,,,
2015年3月,TPO小站教育,采用“社区+网校”的方式，提供托福雅思一对一在线教育，通过SKYPE语音在线授课，并为给予用户5对1跟踪托福指导服务,出国留学,服务,B2C,2900万美元,18473,B轮,顺为基金与纪源领投,3,,,
2015年10月,学科网,是一个教育资源门户网站，专为全国教师和学生提供教学资源、学习资源，提供试题、试卷、教学课件等文本资料的下载与分享，教学和学习经验的交流与互动,K12,内容,B2B,3000万美元,19110,战略投资,好未来,10,,,
2015年10月,The One 智能钢琴,是一台可以与 iPad 连接的智能电钢琴,STEAM,其他,B2C,千万级别美元,19110,B轮,"郎朗，创新工场，真格基金,李开复以及红杉资本",10,,,
2015年3月,悠游堂,家庭娱乐消费平台,学前,其他,B2C,2亿元,20000,IPO前,达晨创投、同创伟业、TCL产业基金、重山资本、广发证券、正和岛,3,,,
2015年6月,明师教育,1对1辅导、小学辅导补习班、初中辅导补习班、高中辅导补习班,K12,服务,B2C,2亿元人民币,20000,B轮,基因资本,6,,,
2015年7月,贝乐学科英语,,少儿外语,服务,B2C,2亿元人民币,20000,B轮,上海远东集团领投,7,,,
2015年3月,跨考教育,教育技术开发等,综合性平台,服务,B2C,2.35亿人民币,23500,战略投资,洪涛股份,3,,,
2015年3月,慧科教育,是一家专注于前沿科技领域的综合教育解决方案提供者，致力于移动互联网、云计算、大数据、互联网营销等前沿科技领域的软件开发、交互设计及项目管理等人才培养,职业教育,内容,B2C,3亿,30000,B轮,千合资本王亚伟领投,3,,,
2015年3月,清大世纪教育,,K12,其他,B2C,4900万美元,31213,C轮,RRJ资本,3,,,
2015年2月,学霸君,学生学习辅助软件 在线免费解答作业题+疑难点,K12,工具,B2C,5000万美元,31850,B轮,启明创投 挚信资本 祥峰投资 网龙,2,,,
2015年2月,跟谁学,O2O找老师学习服务电商平台,综合性平台,服务,C2C,5000万美元,31850,A轮,高榕资本领投，启赋资本以及金浦产业投资基金等跟投。,2,,,
2015年1月,贝斯特教育/网龙,在线教育公司,K12,服务,B2C,5250万美元,33443,A轮,IDG资本、祥峰投资、奥飞动漫,1,,,
2015年9月,知乎, 一款O2O青少年足球培训产品,职业教育,内容,C2C, 5500万美元,35035,C轮,"腾讯,搜狗,赛富,启明创投和创新工场",9,,,
2015年1月,猿题库,练题+评测+扫题,K12,工具,B2C,6000万美元,38220,D轮,华人文化产业投资基金领投，新天域资本、IDG 资本和经纬中国跟投,1,,,
2015年12月,阿凡题,题库,K12,工具,B2C,6000万美元,38220,B轮,深创投、凤凰祥瑞及朗玛峰,12,,,
2015年1月,高思教育,是一个中小学教学培训机构，由教育专家徐鸣皋教授的带领的“数学尖子班”发展而来,K12,服务,B2C,4亿人民币,40000,战略投资,昆吾九鼎投资,1,,,
2015年1月,TPO小站教育,采用“社区+网校”的方式，提供托福雅思一对一在线教育，通过SKYPE语音在线授课，并为给予用户5对2跟踪托福指导服务,出国留学,服务,B2C,8400万美元,53508,C轮,红杉资本中国,1,,,
2015年1月,一起作业网,中小学家庭作业平台,K12,工具,B2B,1亿美元,63700,D轮,H Capital，淡马锡、DST和顺为资本,1,,,
2015年6月, 轻轻家教,家教对接平台，基于P4P模式提供找家教、找学生服务,K12,服务,B2C,1亿美元,63700,C轮,好未来领投，IDG、挚信和红杉跟投,6,,,
2015年12月,沪江,平台化+移动化,综合性平台,其他,B2C,10 亿人民币,100000,D轮,汉能投资、软银麟毅、皖新传媒、马赛资本、中国民生投资、为顺基金、磐石基金、中汇金,12,,,
2015年11月,VIPABC,英语外教口语,职业英语,服务,B2B,2亿美金,127400,C轮,"新加坡政府投资公司(GIC)、中俄基金(RCIF, Russia-China Investment Fund)、高盛(Goldman Sachs Group, Inc.)及银翎资本(Silverlink Capital LP)，B轮投资者新加坡淡马锡(Temasek)同时跟投",11,,,
2015年11月,VIPABC,英语外教口语,职业英语,服务,B2C,2亿美金,127400,C轮,"新加坡政府投资公司(GIC)、中俄基金(RCIF, Russia-China Investment Fund)、高盛(Goldman Sachs Group, Inc.)及银翎资本(Silverlink Capital LP)，B轮投资者新加坡淡马锡(Temasek)同时跟投",11,,,
2015年12月,高考圈,高考志愿填报平台,K12,工具,B2C,数百万,200,种子,天使汇、创客总部及清华DNA基金,12,,,
2015年12月,凡学教育,O2O儿童阅读平台,学前,其他,B2B,1.2亿人民币,12000,B轮,由众晶鑫基金领投，阿米巴、尚雅基金等跟投,12,,,